{
  "contractName": "Counters",
  "abi": [],
  "metadata": "{\"compiler\":{\"version\":\"0.5.8+commit.23d335f2\"},\"language\":\"Solidity\",\"output\":{\"abi\":[],\"devdoc\":{\"author\":\"Matt Condon (@shrugs)\",\"details\":\"Provides counters that can only be incremented or decremented by one. This can be used e.g. to track the number of elements in a mapping, issuing ERC721 ids, or counting request ids * Include with `using Counters for Counters.Counter;` Since it is not possible to overflow a 256 bit integer with increments of one, `increment` can skip the SafeMath overflow check, thereby saving gas. This does assume however correct usage, in that the underlying `_value` is never directly accessed.\",\"methods\":{},\"title\":\"Counters\"},\"userdoc\":{\"methods\":{}}},\"settings\":{\"compilationTarget\":{\"openzeppelin-solidity/contracts/drafts/Counters.sol\":\"Counters\"},\"evmVersion\":\"byzantium\",\"libraries\":{},\"optimizer\":{\"enabled\":false,\"runs\":200},\"remappings\":[]},\"sources\":{\"openzeppelin-solidity/contracts/drafts/Counters.sol\":{\"keccak256\":\"0x982e18d2e3df98e3339f70f955a4d1fb78411a29963d0ea34621759eef67e86d\",\"urls\":[\"bzzr://a5438906da44343a09c6b47666d3649f269d9d156f2109e147e21595b2284363\"]},\"openzeppelin-solidity/contracts/math/SafeMath.sol\":{\"keccak256\":\"0xc2a200a877c4a9b2475c246c54ffecc69ffde3e11af83319c63c2dc5458bac80\",\"urls\":[\"bzzr://c8876e2c39b60f155d748d71d715c8f3903fae5a405ac599adcb6ad2f9a583f9\"]}},\"version\":1}",
  "bytecode": "0x604c6023600b82828239805160001a607314601657fe5b30600052607381538281f3fe73000000000000000000000000000000000000000030146080604052600080fdfea165627a7a723058203d6b2a2986def1435eb4c3844f68f63bd16823600758ce56a9b6aa8ee08aa7740029",
  "deployedBytecode": "0x73000000000000000000000000000000000000000030146080604052600080fdfea165627a7a723058203d6b2a2986def1435eb4c3844f68f63bd16823600758ce56a9b6aa8ee08aa7740029",
  "sourceMap": "626:759:5:-;;132:2:-1;166:7;155:9;146:7;137:37;255:7;249:14;246:1;241:23;235:4;232:33;222:2;;269:9;222:2;293:9;290:1;283:20;323:4;314:7;306:22;347:7;338;331:24",
  "deployedSourceMap": "626:759:5:-;;;;;;;;",
  "source": "pragma solidity ^0.5.2;\n\nimport \"../math/SafeMath.sol\";\n\n/**\n * @title Counters\n * @author Matt Condon (@shrugs)\n * @dev Provides counters that can only be incremented or decremented by one. This can be used e.g. to track the number\n * of elements in a mapping, issuing ERC721 ids, or counting request ids\n *\n * Include with `using Counters for Counters.Counter;`\n * Since it is not possible to overflow a 256 bit integer with increments of one, `increment` can skip the SafeMath\n * overflow check, thereby saving gas. This does assume however correct usage, in that the underlying `_value` is never\n * directly accessed.\n */\nlibrary Counters {\n    using SafeMath for uint256;\n\n    struct Counter {\n        // This variable should never be directly accessed by users of the library: interactions must be restricted to\n        // the library's function. As of Solidity v0.5.2, this cannot be enforced, though there is a proposal to add\n        // this feature: see https://github.com/ethereum/solidity/issues/4637\n        uint256 _value; // default: 0\n    }\n\n    function current(Counter storage counter) internal view returns (uint256) {\n        return counter._value;\n    }\n\n    function increment(Counter storage counter) internal {\n        counter._value += 1;\n    }\n\n    function decrement(Counter storage counter) internal {\n        counter._value = counter._value.sub(1);\n    }\n}\n",
  "sourcePath": "openzeppelin-solidity/contracts/drafts/Counters.sol",
  "ast": {
    "absolutePath": "openzeppelin-solidity/contracts/drafts/Counters.sol",
    "exportedSymbols": {
      "Counters": [
        1063
      ]
    },
    "id": 1064,
    "nodeType": "SourceUnit",
    "nodes": [
      {
        "id": 1016,
        "literals": [
          "solidity",
          "^",
          "0.5",
          ".2"
        ],
        "nodeType": "PragmaDirective",
        "src": "0:23:5"
      },
      {
        "absolutePath": "openzeppelin-solidity/contracts/math/SafeMath.sol",
        "file": "../math/SafeMath.sol",
        "id": 1017,
        "nodeType": "ImportDirective",
        "scope": 1064,
        "sourceUnit": 1336,
        "src": "25:30:5",
        "symbolAliases": [],
        "unitAlias": ""
      },
      {
        "baseContracts": [],
        "contractDependencies": [],
        "contractKind": "library",
        "documentation": "@title Counters\n@author Matt Condon (@shrugs)\n@dev Provides counters that can only be incremented or decremented by one. This can be used e.g. to track the number\nof elements in a mapping, issuing ERC721 ids, or counting request ids\n * Include with `using Counters for Counters.Counter;`\nSince it is not possible to overflow a 256 bit integer with increments of one, `increment` can skip the SafeMath\noverflow check, thereby saving gas. This does assume however correct usage, in that the underlying `_value` is never\ndirectly accessed.",
        "fullyImplemented": true,
        "id": 1063,
        "linearizedBaseContracts": [
          1063
        ],
        "name": "Counters",
        "nodeType": "ContractDefinition",
        "nodes": [
          {
            "id": 1020,
            "libraryName": {
              "contractScope": null,
              "id": 1018,
              "name": "SafeMath",
              "nodeType": "UserDefinedTypeName",
              "referencedDeclaration": 1335,
              "src": "655:8:5",
              "typeDescriptions": {
                "typeIdentifier": "t_contract$_SafeMath_$1335",
                "typeString": "library SafeMath"
              }
            },
            "nodeType": "UsingForDirective",
            "src": "649:27:5",
            "typeName": {
              "id": 1019,
              "name": "uint256",
              "nodeType": "ElementaryTypeName",
              "src": "668:7:5",
              "typeDescriptions": {
                "typeIdentifier": "t_uint256",
                "typeString": "uint256"
              }
            }
          },
          {
            "canonicalName": "Counters.Counter",
            "id": 1023,
            "members": [
              {
                "constant": false,
                "id": 1022,
                "name": "_value",
                "nodeType": "VariableDeclaration",
                "scope": 1023,
                "src": "1021:14:5",
                "stateVariable": false,
                "storageLocation": "default",
                "typeDescriptions": {
                  "typeIdentifier": "t_uint256",
                  "typeString": "uint256"
                },
                "typeName": {
                  "id": 1021,
                  "name": "uint256",
                  "nodeType": "ElementaryTypeName",
                  "src": "1021:7:5",
                  "typeDescriptions": {
                    "typeIdentifier": "t_uint256",
                    "typeString": "uint256"
                  }
                },
                "value": null,
                "visibility": "internal"
              }
            ],
            "name": "Counter",
            "nodeType": "StructDefinition",
            "scope": 1063,
            "src": "682:374:5",
            "visibility": "public"
          },
          {
            "body": {
              "id": 1033,
              "nodeType": "Block",
              "src": "1136:38:5",
              "statements": [
                {
                  "expression": {
                    "argumentTypes": null,
                    "expression": {
                      "argumentTypes": null,
                      "id": 1030,
                      "name": "counter",
                      "nodeType": "Identifier",
                      "overloadedDeclarations": [],
                      "referencedDeclaration": 1025,
                      "src": "1153:7:5",
                      "typeDescriptions": {
                        "typeIdentifier": "t_struct$_Counter_$1023_storage_ptr",
                        "typeString": "struct Counters.Counter storage pointer"
                      }
                    },
                    "id": 1031,
                    "isConstant": false,
                    "isLValue": true,
                    "isPure": false,
                    "lValueRequested": false,
                    "memberName": "_value",
                    "nodeType": "MemberAccess",
                    "referencedDeclaration": 1022,
                    "src": "1153:14:5",
                    "typeDescriptions": {
                      "typeIdentifier": "t_uint256",
                      "typeString": "uint256"
                    }
                  },
                  "functionReturnParameters": 1029,
                  "id": 1032,
                  "nodeType": "Return",
                  "src": "1146:21:5"
                }
              ]
            },
            "documentation": null,
            "id": 1034,
            "implemented": true,
            "kind": "function",
            "modifiers": [],
            "name": "current",
            "nodeType": "FunctionDefinition",
            "parameters": {
              "id": 1026,
              "nodeType": "ParameterList",
              "parameters": [
                {
                  "constant": false,
                  "id": 1025,
                  "name": "counter",
                  "nodeType": "VariableDeclaration",
                  "scope": 1034,
                  "src": "1079:23:5",
                  "stateVariable": false,
                  "storageLocation": "storage",
                  "typeDescriptions": {
                    "typeIdentifier": "t_struct$_Counter_$1023_storage_ptr",
                    "typeString": "struct Counters.Counter"
                  },
                  "typeName": {
                    "contractScope": null,
                    "id": 1024,
                    "name": "Counter",
                    "nodeType": "UserDefinedTypeName",
                    "referencedDeclaration": 1023,
                    "src": "1079:7:5",
                    "typeDescriptions": {
                      "typeIdentifier": "t_struct$_Counter_$1023_storage_ptr",
                      "typeString": "struct Counters.Counter"
                    }
                  },
                  "value": null,
                  "visibility": "internal"
                }
              ],
              "src": "1078:25:5"
            },
            "returnParameters": {
              "id": 1029,
              "nodeType": "ParameterList",
              "parameters": [
                {
                  "constant": false,
                  "id": 1028,
                  "name": "",
                  "nodeType": "VariableDeclaration",
                  "scope": 1034,
                  "src": "1127:7:5",
                  "stateVariable": false,
                  "storageLocation": "default",
                  "typeDescriptions": {
                    "typeIdentifier": "t_uint256",
                    "typeString": "uint256"
                  },
                  "typeName": {
                    "id": 1027,
                    "name": "uint256",
                    "nodeType": "ElementaryTypeName",
                    "src": "1127:7:5",
                    "typeDescriptions": {
                      "typeIdentifier": "t_uint256",
                      "typeString": "uint256"
                    }
                  },
                  "value": null,
                  "visibility": "internal"
                }
              ],
              "src": "1126:9:5"
            },
            "scope": 1063,
            "src": "1062:112:5",
            "stateMutability": "view",
            "superFunction": null,
            "visibility": "internal"
          },
          {
            "body": {
              "id": 1045,
              "nodeType": "Block",
              "src": "1233:36:5",
              "statements": [
                {
                  "expression": {
                    "argumentTypes": null,
                    "id": 1043,
                    "isConstant": false,
                    "isLValue": false,
                    "isPure": false,
                    "lValueRequested": false,
                    "leftHandSide": {
                      "argumentTypes": null,
                      "expression": {
                        "argumentTypes": null,
                        "id": 1039,
                        "name": "counter",
                        "nodeType": "Identifier",
                        "overloadedDeclarations": [],
                        "referencedDeclaration": 1036,
                        "src": "1243:7:5",
                        "typeDescriptions": {
                          "typeIdentifier": "t_struct$_Counter_$1023_storage_ptr",
                          "typeString": "struct Counters.Counter storage pointer"
                        }
                      },
                      "id": 1041,
                      "isConstant": false,
                      "isLValue": true,
                      "isPure": false,
                      "lValueRequested": true,
                      "memberName": "_value",
                      "nodeType": "MemberAccess",
                      "referencedDeclaration": 1022,
                      "src": "1243:14:5",
                      "typeDescriptions": {
                        "typeIdentifier": "t_uint256",
                        "typeString": "uint256"
                      }
                    },
                    "nodeType": "Assignment",
                    "operator": "+=",
                    "rightHandSide": {
                      "argumentTypes": null,
                      "hexValue": "31",
                      "id": 1042,
                      "isConstant": false,
                      "isLValue": false,
                      "isPure": true,
                      "kind": "number",
                      "lValueRequested": false,
                      "nodeType": "Literal",
                      "src": "1261:1:5",
                      "subdenomination": null,
                      "typeDescriptions": {
                        "typeIdentifier": "t_rational_1_by_1",
                        "typeString": "int_const 1"
                      },
                      "value": "1"
                    },
                    "src": "1243:19:5",
                    "typeDescriptions": {
                      "typeIdentifier": "t_uint256",
                      "typeString": "uint256"
                    }
                  },
                  "id": 1044,
                  "nodeType": "ExpressionStatement",
                  "src": "1243:19:5"
                }
              ]
            },
            "documentation": null,
            "id": 1046,
            "implemented": true,
            "kind": "function",
            "modifiers": [],
            "name": "increment",
            "nodeType": "FunctionDefinition",
            "parameters": {
              "id": 1037,
              "nodeType": "ParameterList",
              "parameters": [
                {
                  "constant": false,
                  "id": 1036,
                  "name": "counter",
                  "nodeType": "VariableDeclaration",
                  "scope": 1046,
                  "src": "1199:23:5",
                  "stateVariable": false,
                  "storageLocation": "storage",
                  "typeDescriptions": {
                    "typeIdentifier": "t_struct$_Counter_$1023_storage_ptr",
                    "typeString": "struct Counters.Counter"
                  },
                  "typeName": {
                    "contractScope": null,
                    "id": 1035,
                    "name": "Counter",
                    "nodeType": "UserDefinedTypeName",
                    "referencedDeclaration": 1023,
                    "src": "1199:7:5",
                    "typeDescriptions": {
                      "typeIdentifier": "t_struct$_Counter_$1023_storage_ptr",
                      "typeString": "struct Counters.Counter"
                    }
                  },
                  "value": null,
                  "visibility": "internal"
                }
              ],
              "src": "1198:25:5"
            },
            "returnParameters": {
              "id": 1038,
              "nodeType": "ParameterList",
              "parameters": [],
              "src": "1233:0:5"
            },
            "scope": 1063,
            "src": "1180:89:5",
            "stateMutability": "nonpayable",
            "superFunction": null,
            "visibility": "internal"
          },
          {
            "body": {
              "id": 1061,
              "nodeType": "Block",
              "src": "1328:55:5",
              "statements": [
                {
                  "expression": {
                    "argumentTypes": null,
                    "id": 1059,
                    "isConstant": false,
                    "isLValue": false,
                    "isPure": false,
                    "lValueRequested": false,
                    "leftHandSide": {
                      "argumentTypes": null,
                      "expression": {
                        "argumentTypes": null,
                        "id": 1051,
                        "name": "counter",
                        "nodeType": "Identifier",
                        "overloadedDeclarations": [],
                        "referencedDeclaration": 1048,
                        "src": "1338:7:5",
                        "typeDescriptions": {
                          "typeIdentifier": "t_struct$_Counter_$1023_storage_ptr",
                          "typeString": "struct Counters.Counter storage pointer"
                        }
                      },
                      "id": 1053,
                      "isConstant": false,
                      "isLValue": true,
                      "isPure": false,
                      "lValueRequested": true,
                      "memberName": "_value",
                      "nodeType": "MemberAccess",
                      "referencedDeclaration": 1022,
                      "src": "1338:14:5",
                      "typeDescriptions": {
                        "typeIdentifier": "t_uint256",
                        "typeString": "uint256"
                      }
                    },
                    "nodeType": "Assignment",
                    "operator": "=",
                    "rightHandSide": {
                      "argumentTypes": null,
                      "arguments": [
                        {
                          "argumentTypes": null,
                          "hexValue": "31",
                          "id": 1057,
                          "isConstant": false,
                          "isLValue": false,
                          "isPure": true,
                          "kind": "number",
                          "lValueRequested": false,
                          "nodeType": "Literal",
                          "src": "1374:1:5",
                          "subdenomination": null,
                          "typeDescriptions": {
                            "typeIdentifier": "t_rational_1_by_1",
                            "typeString": "int_const 1"
                          },
                          "value": "1"
                        }
                      ],
                      "expression": {
                        "argumentTypes": [
                          {
                            "typeIdentifier": "t_rational_1_by_1",
                            "typeString": "int_const 1"
                          }
                        ],
                        "expression": {
                          "argumentTypes": null,
                          "expression": {
                            "argumentTypes": null,
                            "id": 1054,
                            "name": "counter",
                            "nodeType": "Identifier",
                            "overloadedDeclarations": [],
                            "referencedDeclaration": 1048,
                            "src": "1355:7:5",
                            "typeDescriptions": {
                              "typeIdentifier": "t_struct$_Counter_$1023_storage_ptr",
                              "typeString": "struct Counters.Counter storage pointer"
                            }
                          },
                          "id": 1055,
                          "isConstant": false,
                          "isLValue": true,
                          "isPure": false,
                          "lValueRequested": false,
                          "memberName": "_value",
                          "nodeType": "MemberAccess",
                          "referencedDeclaration": 1022,
                          "src": "1355:14:5",
                          "typeDescriptions": {
                            "typeIdentifier": "t_uint256",
                            "typeString": "uint256"
                          }
                        },
                        "id": 1056,
                        "isConstant": false,
                        "isLValue": false,
                        "isPure": false,
                        "lValueRequested": false,
                        "memberName": "sub",
                        "nodeType": "MemberAccess",
                        "referencedDeclaration": 1290,
                        "src": "1355:18:5",
                        "typeDescriptions": {
                          "typeIdentifier": "t_function_internal_pure$_t_uint256_$_t_uint256_$returns$_t_uint256_$bound_to$_t_uint256_$",
                          "typeString": "function (uint256,uint256) pure returns (uint256)"
                        }
                      },
                      "id": 1058,
                      "isConstant": false,
                      "isLValue": false,
                      "isPure": false,
                      "kind": "functionCall",
                      "lValueRequested": false,
                      "names": [],
                      "nodeType": "FunctionCall",
                      "src": "1355:21:5",
                      "typeDescriptions": {
                        "typeIdentifier": "t_uint256",
                        "typeString": "uint256"
                      }
                    },
                    "src": "1338:38:5",
                    "typeDescriptions": {
                      "typeIdentifier": "t_uint256",
                      "typeString": "uint256"
                    }
                  },
                  "id": 1060,
                  "nodeType": "ExpressionStatement",
                  "src": "1338:38:5"
                }
              ]
            },
            "documentation": null,
            "id": 1062,
            "implemented": true,
            "kind": "function",
            "modifiers": [],
            "name": "decrement",
            "nodeType": "FunctionDefinition",
            "parameters": {
              "id": 1049,
              "nodeType": "ParameterList",
              "parameters": [
                {
                  "constant": false,
                  "id": 1048,
                  "name": "counter",
                  "nodeType": "VariableDeclaration",
                  "scope": 1062,
                  "src": "1294:23:5",
                  "stateVariable": false,
                  "storageLocation": "storage",
                  "typeDescriptions": {
                    "typeIdentifier": "t_struct$_Counter_$1023_storage_ptr",
                    "typeString": "struct Counters.Counter"
                  },
                  "typeName": {
                    "contractScope": null,
                    "id": 1047,
                    "name": "Counter",
                    "nodeType": "UserDefinedTypeName",
                    "referencedDeclaration": 1023,
                    "src": "1294:7:5",
                    "typeDescriptions": {
                      "typeIdentifier": "t_struct$_Counter_$1023_storage_ptr",
                      "typeString": "struct Counters.Counter"
                    }
                  },
                  "value": null,
                  "visibility": "internal"
                }
              ],
              "src": "1293:25:5"
            },
            "returnParameters": {
              "id": 1050,
              "nodeType": "ParameterList",
              "parameters": [],
              "src": "1328:0:5"
            },
            "scope": 1063,
            "src": "1275:108:5",
            "stateMutability": "nonpayable",
            "superFunction": null,
            "visibility": "internal"
          }
        ],
        "scope": 1064,
        "src": "626:759:5"
      }
    ],
    "src": "0:1386:5"
  },
  "legacyAST": {
    "absolutePath": "openzeppelin-solidity/contracts/drafts/Counters.sol",
    "exportedSymbols": {
      "Counters": [
        1063
      ]
    },
    "id": 1064,
    "nodeType": "SourceUnit",
    "nodes": [
      {
        "id": 1016,
        "literals": [
          "solidity",
          "^",
          "0.5",
          ".2"
        ],
        "nodeType": "PragmaDirective",
        "src": "0:23:5"
      },
      {
        "absolutePath": "openzeppelin-solidity/contracts/math/SafeMath.sol",
        "file": "../math/SafeMath.sol",
        "id": 1017,
        "nodeType": "ImportDirective",
        "scope": 1064,
        "sourceUnit": 1336,
        "src": "25:30:5",
        "symbolAliases": [],
        "unitAlias": ""
      },
      {
        "baseContracts": [],
        "contractDependencies": [],
        "contractKind": "library",
        "documentation": "@title Counters\n@author Matt Condon (@shrugs)\n@dev Provides counters that can only be incremented or decremented by one. This can be used e.g. to track the number\nof elements in a mapping, issuing ERC721 ids, or counting request ids\n * Include with `using Counters for Counters.Counter;`\nSince it is not possible to overflow a 256 bit integer with increments of one, `increment` can skip the SafeMath\noverflow check, thereby saving gas. This does assume however correct usage, in that the underlying `_value` is never\ndirectly accessed.",
        "fullyImplemented": true,
        "id": 1063,
        "linearizedBaseContracts": [
          1063
        ],
        "name": "Counters",
        "nodeType": "ContractDefinition",
        "nodes": [
          {
            "id": 1020,
            "libraryName": {
              "contractScope": null,
              "id": 1018,
              "name": "SafeMath",
              "nodeType": "UserDefinedTypeName",
              "referencedDeclaration": 1335,
              "src": "655:8:5",
              "typeDescriptions": {
                "typeIdentifier": "t_contract$_SafeMath_$1335",
                "typeString": "library SafeMath"
              }
            },
            "nodeType": "UsingForDirective",
            "src": "649:27:5",
            "typeName": {
              "id": 1019,
              "name": "uint256",
              "nodeType": "ElementaryTypeName",
              "src": "668:7:5",
              "typeDescriptions": {
                "typeIdentifier": "t_uint256",
                "typeString": "uint256"
              }
            }
          },
          {
            "canonicalName": "Counters.Counter",
            "id": 1023,
            "members": [
              {
                "constant": false,
                "id": 1022,
                "name": "_value",
                "nodeType": "VariableDeclaration",
                "scope": 1023,
                "src": "1021:14:5",
                "stateVariable": false,
                "storageLocation": "default",
                "typeDescriptions": {
                  "typeIdentifier": "t_uint256",
                  "typeString": "uint256"
                },
                "typeName": {
                  "id": 1021,
                  "name": "uint256",
                  "nodeType": "ElementaryTypeName",
                  "src": "1021:7:5",
                  "typeDescriptions": {
                    "typeIdentifier": "t_uint256",
                    "typeString": "uint256"
                  }
                },
                "value": null,
                "visibility": "internal"
              }
            ],
            "name": "Counter",
            "nodeType": "StructDefinition",
            "scope": 1063,
            "src": "682:374:5",
            "visibility": "public"
          },
          {
            "body": {
              "id": 1033,
              "nodeType": "Block",
              "src": "1136:38:5",
              "statements": [
                {
                  "expression": {
                    "argumentTypes": null,
                    "expression": {
                      "argumentTypes": null,
                      "id": 1030,
                      "name": "counter",
                      "nodeType": "Identifier",
                      "overloadedDeclarations": [],
                      "referencedDeclaration": 1025,
                      "src": "1153:7:5",
                      "typeDescriptions": {
                        "typeIdentifier": "t_struct$_Counter_$1023_storage_ptr",
                        "typeString": "struct Counters.Counter storage pointer"
                      }
                    },
                    "id": 1031,
                    "isConstant": false,
                    "isLValue": true,
                    "isPure": false,
                    "lValueRequested": false,
                    "memberName": "_value",
                    "nodeType": "MemberAccess",
                    "referencedDeclaration": 1022,
                    "src": "1153:14:5",
                    "typeDescriptions": {
                      "typeIdentifier": "t_uint256",
                      "typeString": "uint256"
                    }
                  },
                  "functionReturnParameters": 1029,
                  "id": 1032,
                  "nodeType": "Return",
                  "src": "1146:21:5"
                }
              ]
            },
            "documentation": null,
            "id": 1034,
            "implemented": true,
            "kind": "function",
            "modifiers": [],
            "name": "current",
            "nodeType": "FunctionDefinition",
            "parameters": {
              "id": 1026,
              "nodeType": "ParameterList",
              "parameters": [
                {
                  "constant": false,
                  "id": 1025,
                  "name": "counter",
                  "nodeType": "VariableDeclaration",
                  "scope": 1034,
                  "src": "1079:23:5",
                  "stateVariable": false,
                  "storageLocation": "storage",
                  "typeDescriptions": {
                    "typeIdentifier": "t_struct$_Counter_$1023_storage_ptr",
                    "typeString": "struct Counters.Counter"
                  },
                  "typeName": {
                    "contractScope": null,
                    "id": 1024,
                    "name": "Counter",
                    "nodeType": "UserDefinedTypeName",
                    "referencedDeclaration": 1023,
                    "src": "1079:7:5",
                    "typeDescriptions": {
                      "typeIdentifier": "t_struct$_Counter_$1023_storage_ptr",
                      "typeString": "struct Counters.Counter"
                    }
                  },
                  "value": null,
                  "visibility": "internal"
                }
              ],
              "src": "1078:25:5"
            },
            "returnParameters": {
              "id": 1029,
              "nodeType": "ParameterList",
              "parameters": [
                {
                  "constant": false,
                  "id": 1028,
                  "name": "",
                  "nodeType": "VariableDeclaration",
                  "scope": 1034,
                  "src": "1127:7:5",
                  "stateVariable": false,
                  "storageLocation": "default",
                  "typeDescriptions": {
                    "typeIdentifier": "t_uint256",
                    "typeString": "uint256"
                  },
                  "typeName": {
                    "id": 1027,
                    "name": "uint256",
                    "nodeType": "ElementaryTypeName",
                    "src": "1127:7:5",
                    "typeDescriptions": {
                      "typeIdentifier": "t_uint256",
                      "typeString": "uint256"
                    }
                  },
                  "value": null,
                  "visibility": "internal"
                }
              ],
              "src": "1126:9:5"
            },
            "scope": 1063,
            "src": "1062:112:5",
            "stateMutability": "view",
            "superFunction": null,
            "visibility": "internal"
          },
          {
            "body": {
              "id": 1045,
              "nodeType": "Block",
              "src": "1233:36:5",
              "statements": [
                {
                  "expression": {
                    "argumentTypes": null,
                    "id": 1043,
                    "isConstant": false,
                    "isLValue": false,
                    "isPure": false,
                    "lValueRequested": false,
                    "leftHandSide": {
                      "argumentTypes": null,
                      "expression": {
                        "argumentTypes": null,
                        "id": 1039,
                        "name": "counter",
                        "nodeType": "Identifier",
                        "overloadedDeclarations": [],
                        "referencedDeclaration": 1036,
                        "src": "1243:7:5",
                        "typeDescriptions": {
                          "typeIdentifier": "t_struct$_Counter_$1023_storage_ptr",
                          "typeString": "struct Counters.Counter storage pointer"
                        }
                      },
                      "id": 1041,
                      "isConstant": false,
                      "isLValue": true,
                      "isPure": false,
                      "lValueRequested": true,
                      "memberName": "_value",
                      "nodeType": "MemberAccess",
                      "referencedDeclaration": 1022,
                      "src": "1243:14:5",
                      "typeDescriptions": {
                        "typeIdentifier": "t_uint256",
                        "typeString": "uint256"
                      }
                    },
                    "nodeType": "Assignment",
                    "operator": "+=",
                    "rightHandSide": {
                      "argumentTypes": null,
                      "hexValue": "31",
                      "id": 1042,
                      "isConstant": false,
                      "isLValue": false,
                      "isPure": true,
                      "kind": "number",
                      "lValueRequested": false,
                      "nodeType": "Literal",
                      "src": "1261:1:5",
                      "subdenomination": null,
                      "typeDescriptions": {
                        "typeIdentifier": "t_rational_1_by_1",
                        "typeString": "int_const 1"
                      },
                      "value": "1"
                    },
                    "src": "1243:19:5",
                    "typeDescriptions": {
                      "typeIdentifier": "t_uint256",
                      "typeString": "uint256"
                    }
                  },
                  "id": 1044,
                  "nodeType": "ExpressionStatement",
                  "src": "1243:19:5"
                }
              ]
            },
            "documentation": null,
            "id": 1046,
            "implemented": true,
            "kind": "function",
            "modifiers": [],
            "name": "increment",
            "nodeType": "FunctionDefinition",
            "parameters": {
              "id": 1037,
              "nodeType": "ParameterList",
              "parameters": [
                {
                  "constant": false,
                  "id": 1036,
                  "name": "counter",
                  "nodeType": "VariableDeclaration",
                  "scope": 1046,
                  "src": "1199:23:5",
                  "stateVariable": false,
                  "storageLocation": "storage",
                  "typeDescriptions": {
                    "typeIdentifier": "t_struct$_Counter_$1023_storage_ptr",
                    "typeString": "struct Counters.Counter"
                  },
                  "typeName": {
                    "contractScope": null,
                    "id": 1035,
                    "name": "Counter",
                    "nodeType": "UserDefinedTypeName",
                    "referencedDeclaration": 1023,
                    "src": "1199:7:5",
                    "typeDescriptions": {
                      "typeIdentifier": "t_struct$_Counter_$1023_storage_ptr",
                      "typeString": "struct Counters.Counter"
                    }
                  },
                  "value": null,
                  "visibility": "internal"
                }
              ],
              "src": "1198:25:5"
            },
            "returnParameters": {
              "id": 1038,
              "nodeType": "ParameterList",
              "parameters": [],
              "src": "1233:0:5"
            },
            "scope": 1063,
            "src": "1180:89:5",
            "stateMutability": "nonpayable",
            "superFunction": null,
            "visibility": "internal"
          },
          {
            "body": {
              "id": 1061,
              "nodeType": "Block",
              "src": "1328:55:5",
              "statements": [
                {
                  "expression": {
                    "argumentTypes": null,
                    "id": 1059,
                    "isConstant": false,
                    "isLValue": false,
                    "isPure": false,
                    "lValueRequested": false,
                    "leftHandSide": {
                      "argumentTypes": null,
                      "expression": {
                        "argumentTypes": null,
                        "id": 1051,
                        "name": "counter",
                        "nodeType": "Identifier",
                        "overloadedDeclarations": [],
                        "referencedDeclaration": 1048,
                        "src": "1338:7:5",
                        "typeDescriptions": {
                          "typeIdentifier": "t_struct$_Counter_$1023_storage_ptr",
                          "typeString": "struct Counters.Counter storage pointer"
                        }
                      },
                      "id": 1053,
                      "isConstant": false,
                      "isLValue": true,
                      "isPure": false,
                      "lValueRequested": true,
                      "memberName": "_value",
                      "nodeType": "MemberAccess",
                      "referencedDeclaration": 1022,
                      "src": "1338:14:5",
                      "typeDescriptions": {
                        "typeIdentifier": "t_uint256",
                        "typeString": "uint256"
                      }
                    },
                    "nodeType": "Assignment",
                    "operator": "=",
                    "rightHandSide": {
                      "argumentTypes": null,
                      "arguments": [
                        {
                          "argumentTypes": null,
                          "hexValue": "31",
                          "id": 1057,
                          "isConstant": false,
                          "isLValue": false,
                          "isPure": true,
                          "kind": "number",
                          "lValueRequested": false,
                          "nodeType": "Literal",
                          "src": "1374:1:5",
                          "subdenomination": null,
                          "typeDescriptions": {
                            "typeIdentifier": "t_rational_1_by_1",
                            "typeString": "int_const 1"
                          },
                          "value": "1"
                        }
                      ],
                      "expression": {
                        "argumentTypes": [
                          {
                            "typeIdentifier": "t_rational_1_by_1",
                            "typeString": "int_const 1"
                          }
                        ],
                        "expression": {
                          "argumentTypes": null,
                          "expression": {
                            "argumentTypes": null,
                            "id": 1054,
                            "name": "counter",
                            "nodeType": "Identifier",
                            "overloadedDeclarations": [],
                            "referencedDeclaration": 1048,
                            "src": "1355:7:5",
                            "typeDescriptions": {
                              "typeIdentifier": "t_struct$_Counter_$1023_storage_ptr",
                              "typeString": "struct Counters.Counter storage pointer"
                            }
                          },
                          "id": 1055,
                          "isConstant": false,
                          "isLValue": true,
                          "isPure": false,
                          "lValueRequested": false,
                          "memberName": "_value",
                          "nodeType": "MemberAccess",
                          "referencedDeclaration": 1022,
                          "src": "1355:14:5",
                          "typeDescriptions": {
                            "typeIdentifier": "t_uint256",
                            "typeString": "uint256"
                          }
                        },
                        "id": 1056,
                        "isConstant": false,
                        "isLValue": false,
                        "isPure": false,
                        "lValueRequested": false,
                        "memberName": "sub",
                        "nodeType": "MemberAccess",
                        "referencedDeclaration": 1290,
                        "src": "1355:18:5",
                        "typeDescriptions": {
                          "typeIdentifier": "t_function_internal_pure$_t_uint256_$_t_uint256_$returns$_t_uint256_$bound_to$_t_uint256_$",
                          "typeString": "function (uint256,uint256) pure returns (uint256)"
                        }
                      },
                      "id": 1058,
                      "isConstant": false,
                      "isLValue": false,
                      "isPure": false,
                      "kind": "functionCall",
                      "lValueRequested": false,
                      "names": [],
                      "nodeType": "FunctionCall",
                      "src": "1355:21:5",
                      "typeDescriptions": {
                        "typeIdentifier": "t_uint256",
                        "typeString": "uint256"
                      }
                    },
                    "src": "1338:38:5",
                    "typeDescriptions": {
                      "typeIdentifier": "t_uint256",
                      "typeString": "uint256"
                    }
                  },
                  "id": 1060,
                  "nodeType": "ExpressionStatement",
                  "src": "1338:38:5"
                }
              ]
            },
            "documentation": null,
            "id": 1062,
            "implemented": true,
            "kind": "function",
            "modifiers": [],
            "name": "decrement",
            "nodeType": "FunctionDefinition",
            "parameters": {
              "id": 1049,
              "nodeType": "ParameterList",
              "parameters": [
                {
                  "constant": false,
                  "id": 1048,
                  "name": "counter",
                  "nodeType": "VariableDeclaration",
                  "scope": 1062,
                  "src": "1294:23:5",
                  "stateVariable": false,
                  "storageLocation": "storage",
                  "typeDescriptions": {
                    "typeIdentifier": "t_struct$_Counter_$1023_storage_ptr",
                    "typeString": "struct Counters.Counter"
                  },
                  "typeName": {
                    "contractScope": null,
                    "id": 1047,
                    "name": "Counter",
                    "nodeType": "UserDefinedTypeName",
                    "referencedDeclaration": 1023,
                    "src": "1294:7:5",
                    "typeDescriptions": {
                      "typeIdentifier": "t_struct$_Counter_$1023_storage_ptr",
                      "typeString": "struct Counters.Counter"
                    }
                  },
                  "value": null,
                  "visibility": "internal"
                }
              ],
              "src": "1293:25:5"
            },
            "returnParameters": {
              "id": 1050,
              "nodeType": "ParameterList",
              "parameters": [],
              "src": "1328:0:5"
            },
            "scope": 1063,
            "src": "1275:108:5",
            "stateMutability": "nonpayable",
            "superFunction": null,
            "visibility": "internal"
          }
        ],
        "scope": 1064,
        "src": "626:759:5"
      }
    ],
    "src": "0:1386:5"
  },
  "compiler": {
    "name": "solc",
    "version": "0.5.8+commit.23d335f2.Emscripten.clang"
  },
  "networks": {},
  "schemaVersion": "3.0.9",
  "updatedAt": "2019-05-30T09:11:30.112Z",
  "devdoc": {
    "author": "Matt Condon (@shrugs)",
    "details": "Provides counters that can only be incremented or decremented by one. This can be used e.g. to track the number of elements in a mapping, issuing ERC721 ids, or counting request ids * Include with `using Counters for Counters.Counter;` Since it is not possible to overflow a 256 bit integer with increments of one, `increment` can skip the SafeMath overflow check, thereby saving gas. This does assume however correct usage, in that the underlying `_value` is never directly accessed.",
    "methods": {},
    "title": "Counters"
  },
  "userdoc": {
    "methods": {}
  }
}