{
  "contractName": "IERC721Enumerable",
  "abi": [
    {
      "constant": true,
      "inputs": [
        {
          "name": "interfaceId",
          "type": "bytes4"
        }
      ],
      "name": "supportsInterface",
      "outputs": [
        {
          "name": "",
          "type": "bool"
        }
      ],
      "payable": false,
      "stateMutability": "view",
      "type": "function"
    },
    {
      "constant": true,
      "inputs": [
        {
          "name": "tokenId",
          "type": "uint256"
        }
      ],
      "name": "getApproved",
      "outputs": [
        {
          "name": "operator",
          "type": "address"
        }
      ],
      "payable": false,
      "stateMutability": "view",
      "type": "function"
    },
    {
      "constant": false,
      "inputs": [
        {
          "name": "to",
          "type": "address"
        },
        {
          "name": "tokenId",
          "type": "uint256"
        }
      ],
      "name": "approve",
      "outputs": [],
      "payable": false,
      "stateMutability": "nonpayable",
      "type": "function"
    },
    {
      "constant": false,
      "inputs": [
        {
          "name": "from",
          "type": "address"
        },
        {
          "name": "to",
          "type": "address"
        },
        {
          "name": "tokenId",
          "type": "uint256"
        }
      ],
      "name": "transferFrom",
      "outputs": [],
      "payable": false,
      "stateMutability": "nonpayable",
      "type": "function"
    },
    {
      "constant": false,
      "inputs": [
        {
          "name": "from",
          "type": "address"
        },
        {
          "name": "to",
          "type": "address"
        },
        {
          "name": "tokenId",
          "type": "uint256"
        }
      ],
      "name": "safeTransferFrom",
      "outputs": [],
      "payable": false,
      "stateMutability": "nonpayable",
      "type": "function"
    },
    {
      "constant": true,
      "inputs": [
        {
          "name": "tokenId",
          "type": "uint256"
        }
      ],
      "name": "ownerOf",
      "outputs": [
        {
          "name": "owner",
          "type": "address"
        }
      ],
      "payable": false,
      "stateMutability": "view",
      "type": "function"
    },
    {
      "constant": true,
      "inputs": [
        {
          "name": "owner",
          "type": "address"
        }
      ],
      "name": "balanceOf",
      "outputs": [
        {
          "name": "balance",
          "type": "uint256"
        }
      ],
      "payable": false,
      "stateMutability": "view",
      "type": "function"
    },
    {
      "constant": false,
      "inputs": [
        {
          "name": "operator",
          "type": "address"
        },
        {
          "name": "_approved",
          "type": "bool"
        }
      ],
      "name": "setApprovalForAll",
      "outputs": [],
      "payable": false,
      "stateMutability": "nonpayable",
      "type": "function"
    },
    {
      "constant": false,
      "inputs": [
        {
          "name": "from",
          "type": "address"
        },
        {
          "name": "to",
          "type": "address"
        },
        {
          "name": "tokenId",
          "type": "uint256"
        },
        {
          "name": "data",
          "type": "bytes"
        }
      ],
      "name": "safeTransferFrom",
      "outputs": [],
      "payable": false,
      "stateMutability": "nonpayable",
      "type": "function"
    },
    {
      "constant": true,
      "inputs": [
        {
          "name": "owner",
          "type": "address"
        },
        {
          "name": "operator",
          "type": "address"
        }
      ],
      "name": "isApprovedForAll",
      "outputs": [
        {
          "name": "",
          "type": "bool"
        }
      ],
      "payable": false,
      "stateMutability": "view",
      "type": "function"
    },
    {
      "anonymous": false,
      "inputs": [
        {
          "indexed": true,
          "name": "from",
          "type": "address"
        },
        {
          "indexed": true,
          "name": "to",
          "type": "address"
        },
        {
          "indexed": true,
          "name": "tokenId",
          "type": "uint256"
        }
      ],
      "name": "Transfer",
      "type": "event"
    },
    {
      "anonymous": false,
      "inputs": [
        {
          "indexed": true,
          "name": "owner",
          "type": "address"
        },
        {
          "indexed": true,
          "name": "approved",
          "type": "address"
        },
        {
          "indexed": true,
          "name": "tokenId",
          "type": "uint256"
        }
      ],
      "name": "Approval",
      "type": "event"
    },
    {
      "anonymous": false,
      "inputs": [
        {
          "indexed": true,
          "name": "owner",
          "type": "address"
        },
        {
          "indexed": true,
          "name": "operator",
          "type": "address"
        },
        {
          "indexed": false,
          "name": "approved",
          "type": "bool"
        }
      ],
      "name": "ApprovalForAll",
      "type": "event"
    },
    {
      "constant": true,
      "inputs": [],
      "name": "totalSupply",
      "outputs": [
        {
          "name": "",
          "type": "uint256"
        }
      ],
      "payable": false,
      "stateMutability": "view",
      "type": "function"
    },
    {
      "constant": true,
      "inputs": [
        {
          "name": "owner",
          "type": "address"
        },
        {
          "name": "index",
          "type": "uint256"
        }
      ],
      "name": "tokenOfOwnerByIndex",
      "outputs": [
        {
          "name": "tokenId",
          "type": "uint256"
        }
      ],
      "payable": false,
      "stateMutability": "view",
      "type": "function"
    },
    {
      "constant": true,
      "inputs": [
        {
          "name": "index",
          "type": "uint256"
        }
      ],
      "name": "tokenByIndex",
      "outputs": [
        {
          "name": "",
          "type": "uint256"
        }
      ],
      "payable": false,
      "stateMutability": "view",
      "type": "function"
    }
  ],
  "metadata": "{\"compiler\":{\"version\":\"0.5.8+commit.23d335f2\"},\"language\":\"Solidity\",\"output\":{\"abi\":[{\"constant\":true,\"inputs\":[{\"name\":\"interfaceId\",\"type\":\"bytes4\"}],\"name\":\"supportsInterface\",\"outputs\":[{\"name\":\"\",\"type\":\"bool\"}],\"payable\":false,\"stateMutability\":\"view\",\"type\":\"function\"},{\"constant\":true,\"inputs\":[{\"name\":\"tokenId\",\"type\":\"uint256\"}],\"name\":\"getApproved\",\"outputs\":[{\"name\":\"operator\",\"type\":\"address\"}],\"payable\":false,\"stateMutability\":\"view\",\"type\":\"function\"},{\"constant\":false,\"inputs\":[{\"name\":\"to\",\"type\":\"address\"},{\"name\":\"tokenId\",\"type\":\"uint256\"}],\"name\":\"approve\",\"outputs\":[],\"payable\":false,\"stateMutability\":\"nonpayable\",\"type\":\"function\"},{\"constant\":true,\"inputs\":[],\"name\":\"totalSupply\",\"outputs\":[{\"name\":\"\",\"type\":\"uint256\"}],\"payable\":false,\"stateMutability\":\"view\",\"type\":\"function\"},{\"constant\":false,\"inputs\":[{\"name\":\"from\",\"type\":\"address\"},{\"name\":\"to\",\"type\":\"address\"},{\"name\":\"tokenId\",\"type\":\"uint256\"}],\"name\":\"transferFrom\",\"outputs\":[],\"payable\":false,\"stateMutability\":\"nonpayable\",\"type\":\"function\"},{\"constant\":true,\"inputs\":[{\"name\":\"owner\",\"type\":\"address\"},{\"name\":\"index\",\"type\":\"uint256\"}],\"name\":\"tokenOfOwnerByIndex\",\"outputs\":[{\"name\":\"tokenId\",\"type\":\"uint256\"}],\"payable\":false,\"stateMutability\":\"view\",\"type\":\"function\"},{\"constant\":false,\"inputs\":[{\"name\":\"from\",\"type\":\"address\"},{\"name\":\"to\",\"type\":\"address\"},{\"name\":\"tokenId\",\"type\":\"uint256\"}],\"name\":\"safeTransferFrom\",\"outputs\":[],\"payable\":false,\"stateMutability\":\"nonpayable\",\"type\":\"function\"},{\"constant\":true,\"inputs\":[{\"name\":\"index\",\"type\":\"uint256\"}],\"name\":\"tokenByIndex\",\"outputs\":[{\"name\":\"\",\"type\":\"uint256\"}],\"payable\":false,\"stateMutability\":\"view\",\"type\":\"function\"},{\"constant\":true,\"inputs\":[{\"name\":\"tokenId\",\"type\":\"uint256\"}],\"name\":\"ownerOf\",\"outputs\":[{\"name\":\"owner\",\"type\":\"address\"}],\"payable\":false,\"stateMutability\":\"view\",\"type\":\"function\"},{\"constant\":true,\"inputs\":[{\"name\":\"owner\",\"type\":\"address\"}],\"name\":\"balanceOf\",\"outputs\":[{\"name\":\"balance\",\"type\":\"uint256\"}],\"payable\":false,\"stateMutability\":\"view\",\"type\":\"function\"},{\"constant\":false,\"inputs\":[{\"name\":\"operator\",\"type\":\"address\"},{\"name\":\"_approved\",\"type\":\"bool\"}],\"name\":\"setApprovalForAll\",\"outputs\":[],\"payable\":false,\"stateMutability\":\"nonpayable\",\"type\":\"function\"},{\"constant\":false,\"inputs\":[{\"name\":\"from\",\"type\":\"address\"},{\"name\":\"to\",\"type\":\"address\"},{\"name\":\"tokenId\",\"type\":\"uint256\"},{\"name\":\"data\",\"type\":\"bytes\"}],\"name\":\"safeTransferFrom\",\"outputs\":[],\"payable\":false,\"stateMutability\":\"nonpayable\",\"type\":\"function\"},{\"constant\":true,\"inputs\":[{\"name\":\"owner\",\"type\":\"address\"},{\"name\":\"operator\",\"type\":\"address\"}],\"name\":\"isApprovedForAll\",\"outputs\":[{\"name\":\"\",\"type\":\"bool\"}],\"payable\":false,\"stateMutability\":\"view\",\"type\":\"function\"},{\"anonymous\":false,\"inputs\":[{\"indexed\":true,\"name\":\"from\",\"type\":\"address\"},{\"indexed\":true,\"name\":\"to\",\"type\":\"address\"},{\"indexed\":true,\"name\":\"tokenId\",\"type\":\"uint256\"}],\"name\":\"Transfer\",\"type\":\"event\"},{\"anonymous\":false,\"inputs\":[{\"indexed\":true,\"name\":\"owner\",\"type\":\"address\"},{\"indexed\":true,\"name\":\"approved\",\"type\":\"address\"},{\"indexed\":true,\"name\":\"tokenId\",\"type\":\"uint256\"}],\"name\":\"Approval\",\"type\":\"event\"},{\"anonymous\":false,\"inputs\":[{\"indexed\":true,\"name\":\"owner\",\"type\":\"address\"},{\"indexed\":true,\"name\":\"operator\",\"type\":\"address\"},{\"indexed\":false,\"name\":\"approved\",\"type\":\"bool\"}],\"name\":\"ApprovalForAll\",\"type\":\"event\"}],\"devdoc\":{\"details\":\"See https://eips.ethereum.org/EIPS/eip-721\",\"methods\":{\"supportsInterface(bytes4)\":{\"details\":\"Interface identification is specified in ERC-165. This function uses less than 30,000 gas.\",\"params\":{\"interfaceId\":\"The interface identifier, as specified in ERC-165\"}}},\"title\":\"ERC-721 Non-Fungible Token Standard, optional enumeration extension\"},\"userdoc\":{\"methods\":{\"supportsInterface(bytes4)\":{\"notice\":\"Query if a contract implements an interface\"}}}},\"settings\":{\"compilationTarget\":{\"openzeppelin-solidity/contracts/token/ERC721/IERC721Enumerable.sol\":\"IERC721Enumerable\"},\"evmVersion\":\"byzantium\",\"libraries\":{},\"optimizer\":{\"enabled\":false,\"runs\":200},\"remappings\":[]},\"sources\":{\"openzeppelin-solidity/contracts/introspection/IERC165.sol\":{\"keccak256\":\"0xc48ee580d20820cc0ef122b2acc9bf8836731dd8b9671cc03d21a12e3ab14976\",\"urls\":[\"bzzr://744cf3b8280d4a050ad0771e2ed0d7d41bbddfa40a541933d46bb31007a2e4a9\"]},\"openzeppelin-solidity/contracts/token/ERC721/IERC721.sol\":{\"keccak256\":\"0x44fd7c58fc1323f8481f160f2fd4c34b1653d0cc5def45c2381898d32bcc023e\",\"urls\":[\"bzzr://b7c59c72ede9ca492a5606cbbfaa4ba84e9869d9bdcdac2183655baae8b64026\"]},\"openzeppelin-solidity/contracts/token/ERC721/IERC721Enumerable.sol\":{\"keccak256\":\"0x80b8851ecb70ec4c3af36d5cab5dabccfcef948c874c2768c837e068b1025481\",\"urls\":[\"bzzr://28fba0566c110396f91ac6f1441478d919bc9f7d0f6cb50fb2b69573b0db598b\"]}},\"version\":1}",
  "bytecode": "0x",
  "deployedBytecode": "0x",
  "sourceMap": "",
  "deployedSourceMap": "",
  "source": "pragma solidity ^0.5.2;\n\nimport \"./IERC721.sol\";\n\n/**\n * @title ERC-721 Non-Fungible Token Standard, optional enumeration extension\n * @dev See https://eips.ethereum.org/EIPS/eip-721\n */\ncontract IERC721Enumerable is IERC721 {\n    function totalSupply() public view returns (uint256);\n    function tokenOfOwnerByIndex(address owner, uint256 index) public view returns (uint256 tokenId);\n\n    function tokenByIndex(uint256 index) public view returns (uint256);\n}\n",
  "sourcePath": "openzeppelin-solidity/contracts/token/ERC721/IERC721Enumerable.sol",
  "ast": {
    "absolutePath": "openzeppelin-solidity/contracts/token/ERC721/IERC721Enumerable.sol",
    "exportedSymbols": {
      "IERC721Enumerable": [
        2694
      ]
    },
    "id": 2695,
    "nodeType": "SourceUnit",
    "nodes": [
      {
        "id": 2669,
        "literals": [
          "solidity",
          "^",
          "0.5",
          ".2"
        ],
        "nodeType": "PragmaDirective",
        "src": "0:23:19"
      },
      {
        "absolutePath": "openzeppelin-solidity/contracts/token/ERC721/IERC721.sol",
        "file": "./IERC721.sol",
        "id": 2670,
        "nodeType": "ImportDirective",
        "scope": 2695,
        "sourceUnit": 2668,
        "src": "25:23:19",
        "symbolAliases": [],
        "unitAlias": ""
      },
      {
        "baseContracts": [
          {
            "arguments": null,
            "baseName": {
              "contractScope": null,
              "id": 2671,
              "name": "IERC721",
              "nodeType": "UserDefinedTypeName",
              "referencedDeclaration": 2667,
              "src": "217:7:19",
              "typeDescriptions": {
                "typeIdentifier": "t_contract$_IERC721_$2667",
                "typeString": "contract IERC721"
              }
            },
            "id": 2672,
            "nodeType": "InheritanceSpecifier",
            "src": "217:7:19"
          }
        ],
        "contractDependencies": [
          1124,
          2667
        ],
        "contractKind": "contract",
        "documentation": "@title ERC-721 Non-Fungible Token Standard, optional enumeration extension\n@dev See https://eips.ethereum.org/EIPS/eip-721",
        "fullyImplemented": false,
        "id": 2694,
        "linearizedBaseContracts": [
          2694,
          2667,
          1124
        ],
        "name": "IERC721Enumerable",
        "nodeType": "ContractDefinition",
        "nodes": [
          {
            "body": null,
            "documentation": null,
            "id": 2677,
            "implemented": false,
            "kind": "function",
            "modifiers": [],
            "name": "totalSupply",
            "nodeType": "FunctionDefinition",
            "parameters": {
              "id": 2673,
              "nodeType": "ParameterList",
              "parameters": [],
              "src": "251:2:19"
            },
            "returnParameters": {
              "id": 2676,
              "nodeType": "ParameterList",
              "parameters": [
                {
                  "constant": false,
                  "id": 2675,
                  "name": "",
                  "nodeType": "VariableDeclaration",
                  "scope": 2677,
                  "src": "275:7:19",
                  "stateVariable": false,
                  "storageLocation": "default",
                  "typeDescriptions": {
                    "typeIdentifier": "t_uint256",
                    "typeString": "uint256"
                  },
                  "typeName": {
                    "id": 2674,
                    "name": "uint256",
                    "nodeType": "ElementaryTypeName",
                    "src": "275:7:19",
                    "typeDescriptions": {
                      "typeIdentifier": "t_uint256",
                      "typeString": "uint256"
                    }
                  },
                  "value": null,
                  "visibility": "internal"
                }
              ],
              "src": "274:9:19"
            },
            "scope": 2694,
            "src": "231:53:19",
            "stateMutability": "view",
            "superFunction": null,
            "visibility": "public"
          },
          {
            "body": null,
            "documentation": null,
            "id": 2686,
            "implemented": false,
            "kind": "function",
            "modifiers": [],
            "name": "tokenOfOwnerByIndex",
            "nodeType": "FunctionDefinition",
            "parameters": {
              "id": 2682,
              "nodeType": "ParameterList",
              "parameters": [
                {
                  "constant": false,
                  "id": 2679,
                  "name": "owner",
                  "nodeType": "VariableDeclaration",
                  "scope": 2686,
                  "src": "318:13:19",
                  "stateVariable": false,
                  "storageLocation": "default",
                  "typeDescriptions": {
                    "typeIdentifier": "t_address",
                    "typeString": "address"
                  },
                  "typeName": {
                    "id": 2678,
                    "name": "address",
                    "nodeType": "ElementaryTypeName",
                    "src": "318:7:19",
                    "stateMutability": "nonpayable",
                    "typeDescriptions": {
                      "typeIdentifier": "t_address",
                      "typeString": "address"
                    }
                  },
                  "value": null,
                  "visibility": "internal"
                },
                {
                  "constant": false,
                  "id": 2681,
                  "name": "index",
                  "nodeType": "VariableDeclaration",
                  "scope": 2686,
                  "src": "333:13:19",
                  "stateVariable": false,
                  "storageLocation": "default",
                  "typeDescriptions": {
                    "typeIdentifier": "t_uint256",
                    "typeString": "uint256"
                  },
                  "typeName": {
                    "id": 2680,
                    "name": "uint256",
                    "nodeType": "ElementaryTypeName",
                    "src": "333:7:19",
                    "typeDescriptions": {
                      "typeIdentifier": "t_uint256",
                      "typeString": "uint256"
                    }
                  },
                  "value": null,
                  "visibility": "internal"
                }
              ],
              "src": "317:30:19"
            },
            "returnParameters": {
              "id": 2685,
              "nodeType": "ParameterList",
              "parameters": [
                {
                  "constant": false,
                  "id": 2684,
                  "name": "tokenId",
                  "nodeType": "VariableDeclaration",
                  "scope": 2686,
                  "src": "369:15:19",
                  "stateVariable": false,
                  "storageLocation": "default",
                  "typeDescriptions": {
                    "typeIdentifier": "t_uint256",
                    "typeString": "uint256"
                  },
                  "typeName": {
                    "id": 2683,
                    "name": "uint256",
                    "nodeType": "ElementaryTypeName",
                    "src": "369:7:19",
                    "typeDescriptions": {
                      "typeIdentifier": "t_uint256",
                      "typeString": "uint256"
                    }
                  },
                  "value": null,
                  "visibility": "internal"
                }
              ],
              "src": "368:17:19"
            },
            "scope": 2694,
            "src": "289:97:19",
            "stateMutability": "view",
            "superFunction": null,
            "visibility": "public"
          },
          {
            "body": null,
            "documentation": null,
            "id": 2693,
            "implemented": false,
            "kind": "function",
            "modifiers": [],
            "name": "tokenByIndex",
            "nodeType": "FunctionDefinition",
            "parameters": {
              "id": 2689,
              "nodeType": "ParameterList",
              "parameters": [
                {
                  "constant": false,
                  "id": 2688,
                  "name": "index",
                  "nodeType": "VariableDeclaration",
                  "scope": 2693,
                  "src": "414:13:19",
                  "stateVariable": false,
                  "storageLocation": "default",
                  "typeDescriptions": {
                    "typeIdentifier": "t_uint256",
                    "typeString": "uint256"
                  },
                  "typeName": {
                    "id": 2687,
                    "name": "uint256",
                    "nodeType": "ElementaryTypeName",
                    "src": "414:7:19",
                    "typeDescriptions": {
                      "typeIdentifier": "t_uint256",
                      "typeString": "uint256"
                    }
                  },
                  "value": null,
                  "visibility": "internal"
                }
              ],
              "src": "413:15:19"
            },
            "returnParameters": {
              "id": 2692,
              "nodeType": "ParameterList",
              "parameters": [
                {
                  "constant": false,
                  "id": 2691,
                  "name": "",
                  "nodeType": "VariableDeclaration",
                  "scope": 2693,
                  "src": "450:7:19",
                  "stateVariable": false,
                  "storageLocation": "default",
                  "typeDescriptions": {
                    "typeIdentifier": "t_uint256",
                    "typeString": "uint256"
                  },
                  "typeName": {
                    "id": 2690,
                    "name": "uint256",
                    "nodeType": "ElementaryTypeName",
                    "src": "450:7:19",
                    "typeDescriptions": {
                      "typeIdentifier": "t_uint256",
                      "typeString": "uint256"
                    }
                  },
                  "value": null,
                  "visibility": "internal"
                }
              ],
              "src": "449:9:19"
            },
            "scope": 2694,
            "src": "392:67:19",
            "stateMutability": "view",
            "superFunction": null,
            "visibility": "public"
          }
        ],
        "scope": 2695,
        "src": "187:274:19"
      }
    ],
    "src": "0:462:19"
  },
  "legacyAST": {
    "absolutePath": "openzeppelin-solidity/contracts/token/ERC721/IERC721Enumerable.sol",
    "exportedSymbols": {
      "IERC721Enumerable": [
        2694
      ]
    },
    "id": 2695,
    "nodeType": "SourceUnit",
    "nodes": [
      {
        "id": 2669,
        "literals": [
          "solidity",
          "^",
          "0.5",
          ".2"
        ],
        "nodeType": "PragmaDirective",
        "src": "0:23:19"
      },
      {
        "absolutePath": "openzeppelin-solidity/contracts/token/ERC721/IERC721.sol",
        "file": "./IERC721.sol",
        "id": 2670,
        "nodeType": "ImportDirective",
        "scope": 2695,
        "sourceUnit": 2668,
        "src": "25:23:19",
        "symbolAliases": [],
        "unitAlias": ""
      },
      {
        "baseContracts": [
          {
            "arguments": null,
            "baseName": {
              "contractScope": null,
              "id": 2671,
              "name": "IERC721",
              "nodeType": "UserDefinedTypeName",
              "referencedDeclaration": 2667,
              "src": "217:7:19",
              "typeDescriptions": {
                "typeIdentifier": "t_contract$_IERC721_$2667",
                "typeString": "contract IERC721"
              }
            },
            "id": 2672,
            "nodeType": "InheritanceSpecifier",
            "src": "217:7:19"
          }
        ],
        "contractDependencies": [
          1124,
          2667
        ],
        "contractKind": "contract",
        "documentation": "@title ERC-721 Non-Fungible Token Standard, optional enumeration extension\n@dev See https://eips.ethereum.org/EIPS/eip-721",
        "fullyImplemented": false,
        "id": 2694,
        "linearizedBaseContracts": [
          2694,
          2667,
          1124
        ],
        "name": "IERC721Enumerable",
        "nodeType": "ContractDefinition",
        "nodes": [
          {
            "body": null,
            "documentation": null,
            "id": 2677,
            "implemented": false,
            "kind": "function",
            "modifiers": [],
            "name": "totalSupply",
            "nodeType": "FunctionDefinition",
            "parameters": {
              "id": 2673,
              "nodeType": "ParameterList",
              "parameters": [],
              "src": "251:2:19"
            },
            "returnParameters": {
              "id": 2676,
              "nodeType": "ParameterList",
              "parameters": [
                {
                  "constant": false,
                  "id": 2675,
                  "name": "",
                  "nodeType": "VariableDeclaration",
                  "scope": 2677,
                  "src": "275:7:19",
                  "stateVariable": false,
                  "storageLocation": "default",
                  "typeDescriptions": {
                    "typeIdentifier": "t_uint256",
                    "typeString": "uint256"
                  },
                  "typeName": {
                    "id": 2674,
                    "name": "uint256",
                    "nodeType": "ElementaryTypeName",
                    "src": "275:7:19",
                    "typeDescriptions": {
                      "typeIdentifier": "t_uint256",
                      "typeString": "uint256"
                    }
                  },
                  "value": null,
                  "visibility": "internal"
                }
              ],
              "src": "274:9:19"
            },
            "scope": 2694,
            "src": "231:53:19",
            "stateMutability": "view",
            "superFunction": null,
            "visibility": "public"
          },
          {
            "body": null,
            "documentation": null,
            "id": 2686,
            "implemented": false,
            "kind": "function",
            "modifiers": [],
            "name": "tokenOfOwnerByIndex",
            "nodeType": "FunctionDefinition",
            "parameters": {
              "id": 2682,
              "nodeType": "ParameterList",
              "parameters": [
                {
                  "constant": false,
                  "id": 2679,
                  "name": "owner",
                  "nodeType": "VariableDeclaration",
                  "scope": 2686,
                  "src": "318:13:19",
                  "stateVariable": false,
                  "storageLocation": "default",
                  "typeDescriptions": {
                    "typeIdentifier": "t_address",
                    "typeString": "address"
                  },
                  "typeName": {
                    "id": 2678,
                    "name": "address",
                    "nodeType": "ElementaryTypeName",
                    "src": "318:7:19",
                    "stateMutability": "nonpayable",
                    "typeDescriptions": {
                      "typeIdentifier": "t_address",
                      "typeString": "address"
                    }
                  },
                  "value": null,
                  "visibility": "internal"
                },
                {
                  "constant": false,
                  "id": 2681,
                  "name": "index",
                  "nodeType": "VariableDeclaration",
                  "scope": 2686,
                  "src": "333:13:19",
                  "stateVariable": false,
                  "storageLocation": "default",
                  "typeDescriptions": {
                    "typeIdentifier": "t_uint256",
                    "typeString": "uint256"
                  },
                  "typeName": {
                    "id": 2680,
                    "name": "uint256",
                    "nodeType": "ElementaryTypeName",
                    "src": "333:7:19",
                    "typeDescriptions": {
                      "typeIdentifier": "t_uint256",
                      "typeString": "uint256"
                    }
                  },
                  "value": null,
                  "visibility": "internal"
                }
              ],
              "src": "317:30:19"
            },
            "returnParameters": {
              "id": 2685,
              "nodeType": "ParameterList",
              "parameters": [
                {
                  "constant": false,
                  "id": 2684,
                  "name": "tokenId",
                  "nodeType": "VariableDeclaration",
                  "scope": 2686,
                  "src": "369:15:19",
                  "stateVariable": false,
                  "storageLocation": "default",
                  "typeDescriptions": {
                    "typeIdentifier": "t_uint256",
                    "typeString": "uint256"
                  },
                  "typeName": {
                    "id": 2683,
                    "name": "uint256",
                    "nodeType": "ElementaryTypeName",
                    "src": "369:7:19",
                    "typeDescriptions": {
                      "typeIdentifier": "t_uint256",
                      "typeString": "uint256"
                    }
                  },
                  "value": null,
                  "visibility": "internal"
                }
              ],
              "src": "368:17:19"
            },
            "scope": 2694,
            "src": "289:97:19",
            "stateMutability": "view",
            "superFunction": null,
            "visibility": "public"
          },
          {
            "body": null,
            "documentation": null,
            "id": 2693,
            "implemented": false,
            "kind": "function",
            "modifiers": [],
            "name": "tokenByIndex",
            "nodeType": "FunctionDefinition",
            "parameters": {
              "id": 2689,
              "nodeType": "ParameterList",
              "parameters": [
                {
                  "constant": false,
                  "id": 2688,
                  "name": "index",
                  "nodeType": "VariableDeclaration",
                  "scope": 2693,
                  "src": "414:13:19",
                  "stateVariable": false,
                  "storageLocation": "default",
                  "typeDescriptions": {
                    "typeIdentifier": "t_uint256",
                    "typeString": "uint256"
                  },
                  "typeName": {
                    "id": 2687,
                    "name": "uint256",
                    "nodeType": "ElementaryTypeName",
                    "src": "414:7:19",
                    "typeDescriptions": {
                      "typeIdentifier": "t_uint256",
                      "typeString": "uint256"
                    }
                  },
                  "value": null,
                  "visibility": "internal"
                }
              ],
              "src": "413:15:19"
            },
            "returnParameters": {
              "id": 2692,
              "nodeType": "ParameterList",
              "parameters": [
                {
                  "constant": false,
                  "id": 2691,
                  "name": "",
                  "nodeType": "VariableDeclaration",
                  "scope": 2693,
                  "src": "450:7:19",
                  "stateVariable": false,
                  "storageLocation": "default",
                  "typeDescriptions": {
                    "typeIdentifier": "t_uint256",
                    "typeString": "uint256"
                  },
                  "typeName": {
                    "id": 2690,
                    "name": "uint256",
                    "nodeType": "ElementaryTypeName",
                    "src": "450:7:19",
                    "typeDescriptions": {
                      "typeIdentifier": "t_uint256",
                      "typeString": "uint256"
                    }
                  },
                  "value": null,
                  "visibility": "internal"
                }
              ],
              "src": "449:9:19"
            },
            "scope": 2694,
            "src": "392:67:19",
            "stateMutability": "view",
            "superFunction": null,
            "visibility": "public"
          }
        ],
        "scope": 2695,
        "src": "187:274:19"
      }
    ],
    "src": "0:462:19"
  },
  "compiler": {
    "name": "solc",
    "version": "0.5.8+commit.23d335f2.Emscripten.clang"
  },
  "networks": {},
  "schemaVersion": "3.0.9",
  "updatedAt": "2019-05-30T09:11:30.124Z",
  "devdoc": {
    "details": "See https://eips.ethereum.org/EIPS/eip-721",
    "methods": {
      "supportsInterface(bytes4)": {
        "details": "Interface identification is specified in ERC-165. This function uses less than 30,000 gas.",
        "params": {
          "interfaceId": "The interface identifier, as specified in ERC-165"
        }
      }
    },
    "title": "ERC-721 Non-Fungible Token Standard, optional enumeration extension"
  },
  "userdoc": {
    "methods": {
      "supportsInterface(bytes4)": {
        "notice": "Query if a contract implements an interface"
      }
    }
  }
}